Data Wrangling in RStudio and Tableau Prep
…
Importing a sheet

Reading a sheet of the excel file to see the position of the data and the column types.

read_excel(housing, sheet = "Single Detached")

## New names:
## * `` -> ...2
## * `` -> ...3
## * `` -> ...4
## * `` -> ...5
## * `` -> ...6

## # A tibble: 162 x 6
##    `Single Detached Homes by~ ...2      ...3  ...4  ...5  ...6                  
##    <chr>                      <chr>     <chr> <chr> <lgl> <chr>                 
##  1 Community                  Single D~ <NA>  <NA>  NA    Note:                 
##  2 <NA>                       2016      2017  2018  NA    * For privacy reasons~
##  3 100 Mile House             25        16    19    NA    **                    
##  4 Abbotsford                 336       252   270   NA    Central Saanich inclu~
##  5 Alert Bay                  *         *     *     NA    Delta includes Tsawwa~
##  6 Anmore                     18        18    6     NA    Kent includes Agassiz~
##  7 Armstrong                  35        43    34    NA    Langley includes Lang~
##  8 Ashcroft                   *         *     *     NA    North Cowichan includ~
##  9 Barriere                   *         *     12    NA    North Vancouver inclu~
## 10 Belcarra                   9         *     5     NA    West  Kelowna include~
## # ... with 152 more rows
…
# For Single Detached sheet
single_detached <-
  read_excel(
    housing,
    sheet = "Single Detached",
    range = "B5:E164",
    col_names = c("community", "2016", "2017", "2018"),
    col_types = c("guess", "numeric", "numeric", "numeric"),
    na = "*"
  )

single_detached

## # A tibble: 160 x 4
##    community      `2016` `2017` `2018`
##    <chr>           <dbl>  <dbl>  <dbl>
##  1 100 Mile House     25     16     19
##  2 Abbotsford        336    252    270
##  3 Alert Bay          NA     NA     NA
##  4 Anmore             18     18      6
##  5 Armstrong          35     43     34
##  6 Ashcroft           NA     NA     NA
##  7 Barriere           NA     NA     12
##  8 Belcarra            9     NA      5
##  9 Bowen Island       28     30     31
## 10 Burnaby           371    315    254
## # ... with 150 more rows

#For Multi Unit Homes sheet
multi_unit <-
  read_excel(
    housing,
    sheet = "Multi Unit Homes",
    range = "B5:E164",
    col_names = c("community", "2016", "2017", "2018"),
    col_types = c("guess", "numeric", "numeric", "numeric"),
    na = "*"
  )

multi_unit

## # A tibble: 160 x 4
##    community      `2016` `2017` `2018`
##    <chr>           <dbl>  <dbl>  <dbl>
##  1 100 Mile House     NA      6     NA
##  2 Abbotsford        617    654    579
##  3 Alert Bay          NA     NA     NA
##  4 Anmore             NA     NA     NA
##  5 Armstrong          NA     10     18
##  6 Ashcroft           NA     NA     NA
##  7 Barriere           NA     NA     NA
##  8 Belcarra           NA     NA     NA
##  9 Bowen Island       NA      6     NA
## 10 Burnaby          4322   3044   2347
## # ... with 150 more rows

# For Purpose Built Rental sheet
purpose_rental <-
  read_excel(
    housing,
    sheet = "Purpose Built Rental",
    range = "B5:E164",
    col_names = c("community", "2016", "2017", "2018"),
    col_types = c("guess", "numeric", "numeric", "numeric"),
    na = "*"
  )

purpose_rental

## # A tibble: 160 x 4
##    community      `2016` `2017` `2018`
##    <chr>           <dbl>  <dbl>  <dbl>
##  1 100 Mile House     NA     NA     NA
##  2 Abbotsford        327     NA    428
##  3 Alert Bay          NA     NA     NA
##  4 Anmore             NA     NA     NA
##  5 Armstrong          NA     NA     NA
##  6 Ashcroft           NA     NA     NA
##  7 Barriere           NA     NA     NA
##  8 Belcarra           NA     NA     NA
##  9 Bowen Island       NA     NA     NA
## 10 Burnaby            NA    237    114
## # ... with 150 more rows
…
Tidy data

Making a tidy structure to work with. Because the 3 sheets share the same format, I will not drop the NA values yet.

single_detached_long <- single_detached %>%
  pivot_longer(-community, 
               names_to = "year", 
               values_to = "single")

single_detached_long

## # A tibble: 480 x 3
##    community      year  single
##    <chr>          <chr>  <dbl>
##  1 100 Mile House 2016      25
##  2 100 Mile House 2017      16
##  3 100 Mile House 2018      19
##  4 Abbotsford     2016     336
##  5 Abbotsford     2017     252
##  6 Abbotsford     2018     270
##  7 Alert Bay      2016      NA
##  8 Alert Bay      2017      NA
##  9 Alert Bay      2018      NA
## 10 Anmore         2016      18
## # ... with 470 more rows

multi_unit_long <- multi_unit %>%
  pivot_longer(-community, 
               names_to = "year", 
               values_to = "multi")

multi_unit_long

## # A tibble: 480 x 3
##    community      year  multi
##    <chr>          <chr> <dbl>
##  1 100 Mile House 2016     NA
##  2 100 Mile House 2017      6
##  3 100 Mile House 2018     NA
##  4 Abbotsford     2016    617
##  5 Abbotsford     2017    654
##  6 Abbotsford     2018    579
##  7 Alert Bay      2016     NA
##  8 Alert Bay      2017     NA
##  9 Alert Bay      2018     NA
## 10 Anmore         2016     NA
## # ... with 470 more rows

purpose_rental_long <- purpose_rental %>%
  pivot_longer(-community, 
               names_to = "year", 
               values_to = "rental")

purpose_rental_long

## # A tibble: 480 x 3
##    community      year  rental
##    <chr>          <chr>  <dbl>
##  1 100 Mile House 2016      NA
##  2 100 Mile House 2017      NA
##  3 100 Mile House 2018      NA
##  4 Abbotsford     2016     327
##  5 Abbotsford     2017      NA
##  6 Abbotsford     2018     428
##  7 Alert Bay      2016      NA
##  8 Alert Bay      2017      NA
##  9 Alert Bay      2018      NA
## 10 Anmore         2016      NA
## # ... with 470 more rows
…
Joining tables

Joining the three tables, creating a single table that contains all of the information that was previously stored in three separate sheets.

new_homes_bc <- 
single_detached_long %>% 
  left_join(multi_unit_long, by = c("community", "year")) %>% 
  left_join(purpose_rental_long, by = c("community", "year")) 

new_homes_bc

## # A tibble: 480 x 5
##    community      year  single multi rental
##    <chr>          <chr>  <dbl> <dbl>  <dbl>
##  1 100 Mile House 2016      25    NA     NA
##  2 100 Mile House 2017      16     6     NA
##  3 100 Mile House 2018      19    NA     NA
##  4 Abbotsford     2016     336   617    327
##  5 Abbotsford     2017     252   654     NA
##  6 Abbotsford     2018     270   579    428
##  7 Alert Bay      2016      NA    NA     NA
##  8 Alert Bay      2017      NA    NA     NA
##  9 Alert Bay      2018      NA    NA     NA
## 10 Anmore         2016      18    NA     NA
## # ... with 470 more rows
…
